,date,city,rent,product
0,2022-01-01,Rize,10,1245
1,2022-01-02,Bursa,5,1592
2,2022-01-03,Tunceli,10,1079
3,2022-01-04,Balıkesir,8,1779
4,2022-01-05,Trabzon,4,1084
5,2022-01-06,Eskişehir,7,1694
6,2022-01-07,Adıyaman,14,1087
7,2022-01-08,Bingöl,12,1433
8,2022-01-09,Kırıkkale,1,1987
9,2022-01-10,Edirne,2,1631
10,2022-01-11,Çankırı,6,1711
11,2022-01-12,Niğde,6,1283
12,2022-01-13,Kütahya,11,1475
13,2022-01-14,Balıkesir,4,1570
14,2022-01-15,Eskişehir,8,1529
15,2022-01-16,Kahramanmaraş,3,1384
16,2022-01-17,Niğde,4,1760
17,2022-01-18,İstanbul,13,1281
18,2022-01-19,Manisa,10,1921
19,2022-01-20,Tokat,1,1771
20,2022-01-21,Bitlis,5,1351
21,2022-01-22,Muş,11,1045
22,2022-01-23,Kilis,16,1111
23,2022-01-24,Erzurum,3,1749
24,2022-01-25,Niğde,1,1401
25,2022-01-26,Karabük,13,1796
26,2022-01-27,Çorum,17,1548
27,2022-01-28,Isparta,15,1220
28,2022-01-29,Samsun,6,1102
29,2022-01-30,Bartın,13,1183
30,2022-01-31,Yalova,14,1808
31,2022-02-01,Bartın,16,1302
32,2022-02-02,Iğdır,13,1415
33,2022-02-03,Bursa,4,1303
34,2022-02-04,Mardin,3,1924
35,2022-02-05,Erzurum,3,1293
36,2022-02-06,Çorum,1,1376
37,2022-02-07,Sivas,8,1481
38,2022-02-08,Tokat,4,1047
39,2022-02-09,Bartın,14,1193
40,2022-02-10,Kayseri,4,1375
41,2022-02-11,Antalya,17,1348
42,2022-02-12,Ankara,12,1270
43,2022-02-13,Rize,2,1316
44,2022-02-14,Ardahan,1,1727
45,2022-02-15,Şanlıurfa,9,1479
46,2022-02-16,Yalova,3,1307
47,2022-02-17,Bartın,15,1411
48,2022-02-18,Yalova,6,1625
49,2022-02-19,Trabzon,13,1441
50,2022-02-20,Erzincan,15,1223
51,2022-02-21,Isparta,5,1056
52,2022-02-22,Bayburt,4,1881
53,2022-02-23,Karaman,12,1630
54,2022-02-24,Yalova,9,1235
55,2022-02-25,Rize,7,1000
56,2022-02-26,Muğla,9,1206
57,2022-02-27,Düzce,3,1120
58,2022-02-28,Eskişehir,8,1669
59,2022-03-01,Tokat,14,1220
60,2022-03-02,Adana,14,1605
61,2022-03-03,Ankara,9,1699
62,2022-03-04,Kütahya,10,1593
63,2022-03-05,Ardahan,4,1659
64,2022-03-06,Bitlis,8,1377
65,2022-03-07,Adıyaman,15,1234
66,2022-03-08,Antalya,4,1557
67,2022-03-09,Burdur,9,1401
68,2022-03-10,Niğde,7,1196
69,2022-03-11,Amasya,4,1179
70,2022-03-12,Aydın,15,1911
71,2022-03-13,Bitlis,16,1289
72,2022-03-14,Osmaniye,12,1793
73,2022-03-15,Edirne,17,1562
74,2022-03-16,Amasya,12,1956
75,2022-03-17,Bursa,10,1964
76,2022-03-18,Siirt,3,1415
77,2022-03-19,Tunceli,15,1637
78,2022-03-20,Kayseri,16,1879
79,2022-03-21,Osmaniye,17,1078
80,2022-03-22,Isparta,6,1657
81,2022-03-23,Bilecik,11,1331
82,2022-03-24,Kastamonu,14,1090
83,2022-03-25,Kocaeli,14,1044
84,2022-03-26,Bilecik,4,1951
85,2022-03-27,Adana,10,1978
86,2022-03-28,İstanbul,5,1186
87,2022-03-29,Yozgat,11,1934
88,2022-03-30,Bayburt,10,1189
89,2022-03-31,Samsun,15,1877
90,2022-04-01,Bilecik,9,1097
91,2022-04-02,Karabük,1,1101
92,2022-04-03,Kars,3,1579
93,2022-04-04,Denizli,14,1673
94,2022-04-05,Bilecik,10,1229
95,2022-04-06,Artvin,14,1975
96,2022-04-07,Osmaniye,14,1458
97,2022-04-08,Ardahan,5,1386
98,2022-04-09,Isparta,15,1200
99,2022-04-10,Karabük,16,1442
100,2022-04-11,Erzurum,14,1087
101,2022-04-12,Konya,16,1800
102,2022-04-13,Bursa,9,1899
103,2022-04-14,Yalova,3,1412
104,2022-04-15,İzmir,13,1738
105,2022-04-16,Yozgat,6,1224
106,2022-04-17,Artvin,2,1866
107,2022-04-18,Tunceli,17,1986
108,2022-04-19,Kocaeli,17,1416
109,2022-04-20,Kars,3,1814
110,2022-04-21,Ağrı,12,1277
111,2022-04-22,Yalova,6,1117
112,2022-04-23,Adana,14,1674
113,2022-04-24,Edirne,17,1404
114,2022-04-25,Kırşehir,2,1967
115,2022-04-26,Tunceli,13,1928
116,2022-04-27,Uşak,14,1508
117,2022-04-28,Ağrı,7,1128
118,2022-04-29,Giresun,6,1889
119,2022-04-30,Kayseri,8,1680
120,2022-05-01,Muğla,8,1208
121,2022-05-02,Osmaniye,15,1496
122,2022-05-03,Malatya,2,1443
123,2022-05-04,Aydın,15,1721
124,2022-05-05,Niğde,6,1326
125,2022-05-06,Giresun,11,1413
126,2022-05-07,Kocaeli,6,1931
127,2022-05-08,Çankırı,4,1529
128,2022-05-09,Batman,6,1167
129,2022-05-10,Kastamonu,14,1254
130,2022-05-11,Siirt,2,1447
131,2022-05-12,Çankırı,9,1984
132,2022-05-13,Çanakkale,12,1381
133,2022-05-14,Karaman,6,1638
134,2022-05-15,Batman,10,1353
135,2022-05-16,Düzce,1,1150
136,2022-05-17,Bolu,13,1580
137,2022-05-18,Kırklareli,8,1203
138,2022-05-19,Van,3,1650
139,2022-05-20,Bayburt,1,1528
140,2022-05-21,Kırklareli,12,1542
141,2022-05-22,Iğdır,5,1138
142,2022-05-23,Gümüşhane,6,1214
143,2022-05-24,Trabzon,8,1415
144,2022-05-25,Adıyaman,10,1851
145,2022-05-26,Karabük,5,1772
146,2022-05-27,Sinop,13,1316
147,2022-05-28,Çanakkale,15,1150
148,2022-05-29,Kayseri,14,1056
149,2022-05-30,Kahramanmaraş,17,1861
150,2022-05-31,Mardin,4,1156
151,2022-06-01,Çankırı,4,1817
152,2022-06-02,İçel (Mersin),6,1747
153,2022-06-03,Giresun,10,1757
154,2022-06-04,Gümüşhane,14,1040
155,2022-06-05,Çankırı,17,1492
156,2022-06-06,Denizli,1,1589
157,2022-06-07,Malatya,9,1568
158,2022-06-08,Muş,14,1459
159,2022-06-09,Isparta,14,1199
160,2022-06-10,Antalya,13,1110
161,2022-06-11,Bolu,9,1564
162,2022-06-12,Bilecik,14,1079
163,2022-06-13,Sinop,1,1105
164,2022-06-14,Diyarbakır,8,1680
165,2022-06-15,Isparta,3,1872
166,2022-06-16,Elazığ,17,1719
167,2022-06-17,Edirne,8,1468
168,2022-06-18,Batman,17,1072
169,2022-06-19,İçel (Mersin),11,1391
170,2022-06-20,Mardin,13,1340
171,2022-06-21,Rize,16,1125
172,2022-06-22,Aksaray,13,1879
173,2022-06-23,Siirt,4,1542
174,2022-06-24,Siirt,11,1535
175,2022-06-25,Çanakkale,4,1513
176,2022-06-26,Adana,5,1621
177,2022-06-27,Batman,2,1536
178,2022-06-28,Bitlis,11,1224
179,2022-06-29,Tokat,10,1579
180,2022-06-30,Manisa,8,1965
181,2022-07-01,Uşak,13,1682
182,2022-07-02,Niğde,16,1939
183,2022-07-03,Zonguldak,9,1431
184,2022-07-04,Kars,5,1109
185,2022-07-05,Çorum,12,1395
186,2022-07-06,Sivas,16,1275
187,2022-07-07,Erzurum,15,1427
188,2022-07-08,Antalya,6,1930
189,2022-07-09,Yozgat,2,1773
190,2022-07-10,Hakkari,12,1137
191,2022-07-11,Osmaniye,14,1732
192,2022-07-12,Nevşehir,17,1123
193,2022-07-13,Sakarya,12,1962
194,2022-07-14,Gaziantep,8,1072
195,2022-07-15,Eskişehir,14,1517
196,2022-07-16,Trabzon,2,1625
197,2022-07-17,Adıyaman,3,1187
198,2022-07-18,Kayseri,1,1719
199,2022-07-19,Kırklareli,8,1013
200,2022-07-20,Mardin,16,1063
201,2022-07-21,Ordu,7,1903
202,2022-07-22,Erzincan,2,1223
203,2022-07-23,Çorum,5,1266
204,2022-07-24,Kastamonu,14,1481
205,2022-07-25,Bursa,4,1859
206,2022-07-26,Tokat,15,1153
207,2022-07-27,Kars,10,1928
208,2022-07-28,Uşak,3,1350
209,2022-07-29,Bingöl,3,1541
210,2022-07-30,Çorum,7,1693
211,2022-07-31,Bartın,11,1941
212,2022-08-01,Iğdır,2,1839
213,2022-08-02,Aksaray,9,1071
214,2022-08-03,Eskişehir,1,1037
215,2022-08-04,Konya,12,1783
216,2022-08-05,Gümüşhane,3,1871
217,2022-08-06,Ardahan,12,1782
218,2022-08-07,Kilis,9,1870
219,2022-08-08,Eskişehir,16,1900
220,2022-08-09,Adıyaman,15,1264
221,2022-08-10,Niğde,11,1177
222,2022-08-11,Kastamonu,10,1524
223,2022-08-12,Bilecik,1,1252
224,2022-08-13,İçel (Mersin),13,1072
225,2022-08-14,Ağrı,13,1002
226,2022-08-15,Bilecik,15,1767
227,2022-08-16,Tunceli,15,1430
228,2022-08-17,Yozgat,8,1796
229,2022-08-18,Yozgat,5,1641
230,2022-08-19,Bartın,8,1705
231,2022-08-20,Tokat,12,1355
232,2022-08-21,Kırşehir,3,1046
233,2022-08-22,Niğde,14,1376
234,2022-08-23,Adıyaman,14,1909
235,2022-08-24,Burdur,9,1064
236,2022-08-25,Sinop,14,1753
237,2022-08-26,Malatya,4,1709
238,2022-08-27,Muş,6,1330
239,2022-08-28,Edirne,8,1340
240,2022-08-29,Bolu,8,1852
241,2022-08-30,Kastamonu,5,1036
242,2022-08-31,Sakarya,3,1210
243,2022-09-01,Mardin,8,1413
244,2022-09-02,Yozgat,13,1808
245,2022-09-03,Siirt,12,1389
246,2022-09-04,Bayburt,8,1109
247,2022-09-05,Iğdır,1,1542
248,2022-09-06,Kocaeli,14,1149
249,2022-09-07,Çankırı,16,1377
250,2022-09-08,Uşak,4,1221
251,2022-09-09,Tokat,4,1666
252,2022-09-10,Bilecik,13,1790
253,2022-09-11,Samsun,5,1014
254,2022-09-12,Kocaeli,17,1206
255,2022-09-13,Konya,8,1970
256,2022-09-14,Erzurum,12,1948
257,2022-09-15,Kahramanmaraş,2,1116
258,2022-09-16,Adana,10,1282
259,2022-09-17,Kayseri,1,1209
260,2022-09-18,Samsun,6,1963
261,2022-09-19,Tokat,9,1015
262,2022-09-20,Düzce,12,1215
263,2022-09-21,Kütahya,13,1646
264,2022-09-22,Kars,7,1392
265,2022-09-23,Tokat,7,1156
266,2022-09-24,Kocaeli,6,1135
267,2022-09-25,Gaziantep,14,1463
268,2022-09-26,Adıyaman,10,1628
269,2022-09-27,Ağrı,4,1180
270,2022-09-28,Batman,8,1611
271,2022-09-29,Rize,5,1950
272,2022-09-30,İstanbul,2,1084
273,2022-10-01,Ankara,6,1733
274,2022-10-02,Osmaniye,15,1463
275,2022-10-03,Sakarya,2,1232
276,2022-10-04,Hakkari,4,1244
277,2022-10-05,Samsun,14,1453
278,2022-10-06,Tokat,17,1718
279,2022-10-07,Tunceli,5,1419
280,2022-10-08,Sinop,16,1033
281,2022-10-09,Kars,6,1312
282,2022-10-10,Kütahya,3,1416
283,2022-10-11,Çanakkale,11,1786
284,2022-10-12,İstanbul,4,1799
285,2022-10-13,Düzce,2,1833
286,2022-10-14,Manisa,3,1569
287,2022-10-15,Kayseri,11,1989
288,2022-10-16,Manisa,5,1970
289,2022-10-17,Muş,8,1883
290,2022-10-18,Bolu,17,1638
291,2022-10-19,Erzincan,14,1414
292,2022-10-20,Kastamonu,13,1449
293,2022-10-21,Niğde,12,1668
294,2022-10-22,Nevşehir,13,1873
295,2022-10-23,Sinop,15,1883
296,2022-10-24,Kastamonu,12,1625
297,2022-10-25,İzmir,17,1172
298,2022-10-26,Giresun,3,1819
299,2022-10-27,Hatay,6,1628
300,2022-10-28,Eskişehir,14,1147
301,2022-10-29,Muş,15,1084
302,2022-10-30,Manisa,13,1296
303,2022-10-31,Uşak,9,1439
304,2022-11-01,Tekirdağ,7,1678
305,2022-11-02,Kilis,10,1748
306,2022-11-03,İstanbul,14,1697
307,2022-11-04,Manisa,2,1853
308,2022-11-05,Çanakkale,13,1767
309,2022-11-06,Diyarbakır,13,1667
310,2022-11-07,Trabzon,7,1551
311,2022-11-08,Burdur,7,1524
312,2022-11-09,Hatay,9,1744
313,2022-11-10,Karabük,3,1742
314,2022-11-11,Balıkesir,13,1003
315,2022-11-12,Aksaray,2,1844
316,2022-11-13,Bayburt,12,1042
317,2022-11-14,Hakkari,17,1615
318,2022-11-15,Balıkesir,16,1613
319,2022-11-16,Çankırı,12,1387
320,2022-11-17,Artvin,14,1328
321,2022-11-18,Van,6,1377
322,2022-11-19,Gaziantep,7,1288
323,2022-11-20,Karaman,15,1739
324,2022-11-21,Trabzon,2,1237
325,2022-11-22,Mardin,10,1492
326,2022-11-23,Bursa,10,1905
327,2022-11-24,Burdur,13,1614
328,2022-11-25,Amasya,9,1580
329,2022-11-26,Kocaeli,17,1326
330,2022-11-27,Kayseri,4,1581
331,2022-11-28,Çorum,5,1918
332,2022-11-29,İzmir,17,1499
333,2022-11-30,Trabzon,7,1244
334,2022-12-01,Bilecik,5,1282
335,2022-12-02,Şırnak,9,1557
336,2022-12-03,Karabük,6,1922
337,2022-12-04,Batman,7,1461
338,2022-12-05,Aydın,5,1632
339,2022-12-06,Aydın,14,1118
340,2022-12-07,İzmir,16,1366
341,2022-12-08,Trabzon,2,1046
342,2022-12-09,Ardahan,2,1569
343,2022-12-10,Adıyaman,14,1713
344,2022-12-11,İçel (Mersin),13,1895
345,2022-12-12,Sakarya,17,1168
346,2022-12-13,Aksaray,17,1432
347,2022-12-14,Kırıkkale,11,1123
348,2022-12-15,Samsun,11,1397
349,2022-12-16,Karabük,2,1766
350,2022-12-17,Bayburt,1,1928
351,2022-12-18,Sivas,14,1688
352,2022-12-19,Giresun,9,1333
353,2022-12-20,Bursa,3,1777
354,2022-12-21,Uşak,6,1402
355,2022-12-22,Burdur,2,1712
356,2022-12-23,İstanbul,5,1817
357,2022-12-24,Diyarbakır,13,1019
358,2022-12-25,Karabük,3,1290
359,2022-12-26,Afyon,17,1542
360,2022-12-27,Balıkesir,17,1122
361,2022-12-28,Denizli,5,1398
362,2022-12-29,Zonguldak,6,1273
363,2022-12-30,Hatay,2,1835
